<?xml version="1.0" encoding="utf-8"?>
<!-- Generator: Adobe Illustrator 28.1.0, SVG Export Plug-In . SVG Version: 6.00 Build 0)  -->
<svg version="1.1" id="Layer_1" xmlns="http://www.w3.org/2000/svg" xmlns:xlink="http://www.w3.org/1999/xlink" x="0px" y="0px"
	 viewBox="0 0 49.6 49.3" style="enable-background:new 0 0 49.6 49.3;" xml:space="preserve">
<g>
	<path style="fill:none;stroke:#2f3141;stroke-width:2;stroke-linecap:round;stroke-linejoin:round;" d="M41,22.4v20.5
		c0,2.4-1.9,4.3-4.3,4.3H6.5c-2.4,0-4.3-1.9-4.3-4.3V12.7c0-2.4,1.9-4.3,4.3-4.3H27"/>
	<circle style="fill:none;stroke:#2f3141;stroke-width:2;stroke-linecap:round;stroke-linejoin:round;" cx="14" cy="20.2" r="3.2"/>
	<polyline style="fill:none;stroke:#2f3141;stroke-width:2;stroke-linecap:round;stroke-linejoin:round;" points="41,34.3 
		30.2,23.5 6.5,47.2 	"/>
</g>
<circle style="fill:none;stroke:#2f3141;stroke-width:2;stroke-linecap:round;stroke-linejoin:round;" cx="37.2" cy="12.3" r="10.7"/>
<rect x="26.1" y="2.2" style="fill:none;" width="21.8" height="19.6"/>
<text transform="matrix(1 0 0 1 31.6538 19.4549)" style="stroke:#2f3141;stroke-width:0.75;stroke-miterlimit:10; font-family:'MyriadPro-Regular'; font-size:21px;">2</text>
</svg>
