<?xml version="1.0" encoding="utf-8"?>
<!-- Generator: Adobe Illustrator 28.1.0, SVG Export Plug-In . SVG Version: 6.00 Build 0)  -->
<svg version="1.1" id="Layer_1" xmlns="http://www.w3.org/2000/svg" xmlns:xlink="http://www.w3.org/1999/xlink" x="0px" y="0px"
	 viewBox="0 0 226.9 346.6" style="enable-background:new 0 0 226.9 346.6;" xml:space="preserve">
<g>
	<g style="opacity:0.7;">
		<path style="fill:#FFFFFF;" d="M199.7,284c0,0,18,30.3,19.6,40s5.1,16.4,5.1,16.4"/>
		<path style="fill:#010101;" d="M199.7,284c6.6,11.1,13.3,22.2,18.4,34c1,2.3,1.8,5,2.2,7.5c1.1,4.9,2.7,9.9,4.9,14.4l-1.8,0.9
			c-2.2-4.8-3.7-9.8-4.6-15c-0.3-2.5-1-5-1.9-7.3C212.3,306.4,205.9,295.2,199.7,284L199.7,284z"/>
	</g>
	
		<linearGradient id="SVGID_1_" gradientUnits="userSpaceOnUse" x1="1.2458" y1="-419.0616" x2="168.8266" y2="-419.0616" gradientTransform="matrix(1 0 0 1 0 518)">
		<stop  offset="0" style="stop-color:#FFFFFF"/>
		<stop  offset="1.470981e-02" style="stop-color:#EDEEF3"/>
		<stop  offset="8.184548e-02" style="stop-color:#B9BED2"/>
		<stop  offset="0.1519" style="stop-color:#909BBA"/>
		<stop  offset="0.2234" style="stop-color:#7183AA"/>
		<stop  offset="0.2969" style="stop-color:#58719C"/>
		<stop  offset="0.3729" style="stop-color:#436695"/>
		<stop  offset="0.4525" style="stop-color:#335E8F"/>
		<stop  offset="0.5379" style="stop-color:#275A8C"/>
		<stop  offset="0.6398" style="stop-color:#24588B"/>
	</linearGradient>
	<path style="fill:url(#SVGID_1_);stroke:#FFFFFF;stroke-width:3;stroke-miterlimit:10;" d="M168.8,104.3c0.5,5.5-4.8,26.4-4.8,26.4
		c-2.7,19.6-20.4,40.8-20.4,40.8c-11.5,14.2-21.5,8.9-21.5,8.9l-2.1-1.5c-3.2,0.7-8.7-1.9-8.7-1.9l-26.4-6c-4.6,0.9-6.5-1.5-6.5-1.5
		l-31.4-7c-4.4-1-8.7-1.2-8.7-1.2l-37.2-8.2C34.6,29.4,10,17.2,10,17.2c0-1.9,7.1,1.3,6.4,2.3c-0.7,1,38.9,13.2,38.9,13.2
		s9.2,71.5,78.2,40.9"/>
	
		<linearGradient id="SVGID_00000038387849722825183870000000397366858204495258_" gradientUnits="userSpaceOnUse" x1="90.1011" y1="-231.2877" x2="227.7302" y2="-231.2877" gradientTransform="matrix(1 0 0 1 0 518)">
		<stop  offset="0" style="stop-color:#FFFFFF"/>
		<stop  offset="0" style="stop-color:#F1F0F3"/>
		<stop  offset="0" style="stop-color:#CDCFDE"/>
		<stop  offset="0" style="stop-color:#BBC0D3"/>
		<stop  offset="0" style="stop-color:#B3B9CF"/>
		<stop  offset="0" style="stop-color:#E0E2EA"/>
		<stop  offset="1.815697e-02" style="stop-color:#FAFAFD"/>
		<stop  offset="3.385133e-02" style="stop-color:#7A89AE"/>
		<stop  offset="4.954569e-02" style="stop-color:#98A1BF"/>
		<stop  offset="0.3316" style="stop-color:#7F8CB0"/>
		<stop  offset="0.7158" style="stop-color:#6477A1"/>
		<stop  offset="0.923" style="stop-color:#59709C"/>
		<stop  offset="0.9904" style="stop-color:#2C5B8D"/>
		<stop  offset="1" style="stop-color:#24588B"/>
	</linearGradient>
	<path style="fill:url(#SVGID_00000038387849722825183870000000397366858204495258_);stroke:#22578A;stroke-miterlimit:10;" d="
		M149,253.9c0,0-5.3-5.6-6.6-5.8c0,0-1.9,3-2.5,3c0,0-4.8,0.4-4.5-2.2l-1.7,1.3c0,0,0.3,5.1,0,5.7c-0.3,0.7-0.9,1.6-0.9,1.6l-0.4,2
		v1.4c0,0-0.5,3.2-2,3.8s-2.7-0.9-2.7-0.9s-0.7-0.8-1.5-0.5c0,0-6,0.4-9.6,2.7c-3.7,2.3-4.2,2.5-5.4,2.7c-1.3,0.1-3.8-2-5,3.2
		c0,0,0.5,1.1-3,0.7c0,0-1.7,0.3-1.8,3c0,0,2,1.3-0.6,1.3c0,0-0.8,0.3-0.9,1.9l-1.7,1.2c0,0-0.5,1.2,0,1.9c0,0-2.1-0.4-2.5,0.8
		c-0.3,1.2,0.3,1.7,0.3,1.7l-5.7,5.7c0,0,9.7-6.1,18.5,5c0,0,3,3.6,3.9,7.6l-0.3,19.7c0,0,0.5,22,1.5,24.3s113.1,0,113.1,0
		s-0.3-1.5-2.4-6.4c0,0,0.8-11.1,0-15.6c0,0,0.2-20.7-2.3-29.3c-2.4-8.4,0.1-18.8,0.1-18.8s4.4-4.5,4.4-21.3c0,0,0.8-4.3,1.1-10.7
		c0,0-0.3-8.5-1.3-9.8c0,0,1.3,14.8-9.6,18.9c-10.9,4.2-19.5-9.9-19.5-9.9s-5.7-8-3.6-18l-2,1.7l-1.7,0.1l-1.9,1.7l-1.7,0.3
		l-7.1,8.4c0,0-3.2-0.7-7.7-4c0,0-3.3-0.9-11.3,8.4c0,0-4,2-9.1,1.3L149,253.9c0,0,0.5,15.2-0.9,17.4l5.9-0.8l-0.1-16.4l1.1-10
		c0,0,4.3,2.3,7.9,1.1s4.3-2.1,4.3-2.1s2.3-1.2,4,0.7c0,0,0.7-4.4,7.6-5.7"/>
	
		<linearGradient id="SVGID_00000064315741718583920240000001569964358492021938_" gradientUnits="userSpaceOnUse" x1="154.5023" y1="-270.878" x2="169.7556" y2="-270.878" gradientTransform="matrix(1 0 0 1 0 518)">
		<stop  offset="0" style="stop-color:#FFFFFF"/>
		<stop  offset="0.114" style="stop-color:#C2C5D7"/>
		<stop  offset="0.2306" style="stop-color:#96A0BE"/>
		<stop  offset="0.3508" style="stop-color:#7785AB"/>
		<stop  offset="0.4727" style="stop-color:#5C729E"/>
		<stop  offset="0.5967" style="stop-color:#456795"/>
		<stop  offset="0.7237" style="stop-color:#345F8E"/>
		<stop  offset="0.8556" style="stop-color:#275A8C"/>
		<stop  offset="1" style="stop-color:#24588B"/>
	</linearGradient>
	<path style="fill:url(#SVGID_00000064315741718583920240000001569964358492021938_);" d="M154.5,251l0.4-6.7c0,0,4.8,2.2,7.3,1.3
		c2.5-0.9,4.8-2.3,4.8-2.3h2.7L154.5,251z"/>
	<path style="fill:none;stroke:#24588B;stroke-miterlimit:10;" d="M140.5,251c-2.3,0-3.7,3.5-3.7,3.5l-1.5,1.7c0,0-0.9,4.7-0.9,6.8
		c-0.1,2.1-4.4,5.1-4.4,5.1s1-3.1,0.9-3.8"/>
	
		<linearGradient id="SVGID_00000099620709480140194750000010463118687703121280_" gradientUnits="userSpaceOnUse" x1="192.1558" y1="-216.5843" x2="221.9352" y2="-216.5843" gradientTransform="matrix(1 0 0 1 0 518)">
		<stop  offset="0" style="stop-color:#FFFFFF"/>
		<stop  offset="3.892601e-03" style="stop-color:#FBFCFE"/>
		<stop  offset="0.1165" style="stop-color:#C0C4D7"/>
		<stop  offset="0.2328" style="stop-color:#959FBD"/>
		<stop  offset="0.3508" style="stop-color:#7585AA"/>
		<stop  offset="0.471" style="stop-color:#5C739E"/>
		<stop  offset="0.5936" style="stop-color:#456795"/>
		<stop  offset="0.7199" style="stop-color:#345E8F"/>
		<stop  offset="0.8522" style="stop-color:#275A8C"/>
		<stop  offset="1" style="stop-color:#24588B"/>
	</linearGradient>
	<path style="fill:url(#SVGID_00000099620709480140194750000010463118687703121280_);stroke:#24588B;stroke-miterlimit:10;" d="
		M212,346.7c0,0-10.2-40-10.5-49.2c0,0-7.9-37.5-9.3-41.4c0,0,16.1,17.6,17.4,20.9c1.3,3.4,12.4,1.2,12.4,1.2"/>
	<path style="fill:none;stroke:#24588B;stroke-miterlimit:10;" d="M192.1,256.1c0,0-5.8-10.3-14-13l-0.6,1.2c0,0-3.6-1-4.8-2.1"/>
	<line style="fill:none;stroke:#24588B;stroke-miterlimit:10;" x1="163.2" y1="290.2" x2="179.4" y2="237.9"/>
	<path style="fill:none;stroke:#24588B;stroke-miterlimit:10;" d="M154.5,281.2c0,0,3.2-26,11.3-30.2"/>
	<path style="fill:none;stroke:#22578A;stroke-width:2;stroke-miterlimit:10;" d="M226.3,234.9c0,0,2.7-22.1,2.1-23.2
		s1.3-3.9,1.3-3.9s1.1-11.8-1.2-15.8s-5.4-14.8-7-16.4c0,0-5.1-12.7-6.4-13.7c0,0-10.3-15.2-10.4-16c0,0-7-11.3-7.7-15
		c0,0,3.2,1.1,4.2-3.2c0,0-4.9-10.9-8.9-12.7c0,0-3.6-0.7-4,2.5c0,0,0.7,3,2.1,4.1c0,0-6.6,7.9-13.8,8.9c-0.6,0.1-1.2,0.1-1.8,0.1
		c0,0,1.3,5.9,4.4,6.5c0,0,1,0.5,1.7,0.1c0.7-0.3-4.8-6-4.4-6.4"/>
	<path style="fill:none;stroke:#22578A;stroke-miterlimit:10;" d="M168.9,75.1c0,0-6-2.3-10.5-2.5c0,0-0.9-2.3,0.5-2.6
		c1.5-0.3,5.1,0.5,5.1,0.5c3.4,0.8,3.9,1.9,3.9,1.9L168.9,75.1c2.7-0.3,3.9,2.4,3.9,2.4l1.5,8.8c2.9,7,4.6,13.3,4.8,13.3
		c0.3-0.1,4,9.7,4,9.7c3.4,9.6,7.3,12.6,7.3,12.6"/>
	<path style="fill:none;stroke:#22578A;stroke-miterlimit:10;" d="M158.5,72.6c0,0-1.9-0.3-2.5,0c0,0-1.1-0.8-2.5-0.9
		c-1.4-0.1-1.9,0.9-1.9,0.9s-0.5,2.5,0.5,3.1c0.9,0.5,1.8,0.9,2.5,0.9c0.7,0.1,2.1,0.5,2.1,0.5s4-0.5,6.6,0.5l2.2,0.5
		c0,0,1.7,0.1,2.1,1.5c0,0,0.5,0.1,0.9,0s0.8-0.7,1.5,0.1"/>
	<path style="fill:none;stroke:#FFFFFF;stroke-miterlimit:10;" d="M156.3,77.1c0,0-0.7,0.3-3.5-0.3c-2.8-0.5-2.7,0.9-2.7,1.3
		s0.2,3.4,3.6,3.9s4,0.7,5.4,0.5c0,0,3.6,3.2,6.6,3.4c0,0-0.7,2.8,0,2.9c0.7,0.1,4.6,2.6,5,3.9"/>
	<path style="fill:none;stroke:#22578A;stroke-width:2;stroke-miterlimit:10;" d="M168.3,90.1c0,0-3.6,0.3-4.4-0.3
		c-0.8-0.6-2.9-0.5-2.9-0.5s-3.2-0.3-4.2,0c-1,0.3-1.6,0.7-1.6,0.7l-3,0.3c0,0-1.7,0.9-0.3,2.9c1.4,1.9,3.4,1.4,3.4,1.4
		s4,0.3,4.8,0.1s4.8,1.7,4.8,1.7s2.9,2.8,3.4,2.5c0,0,0.7,0.5,0.5,5.5c-0.1,5-1.1,14.6-2.3,17.8c0,0,7.4,3.8,7.6,5.1
		c0,0,2.1,1.7,2.4,3.4"/>
	<path style="fill:none;stroke:#22578A;stroke-width:2;stroke-miterlimit:10;" d="M193.7,225.9c0.9-18.1,10-20.5,10-20.5
		s1.1-1.2,0-1.7c-1.1-0.5-1.9-5.6-1.9-5.6c-1.5-2.1-4-10.2-4-10.2c-1.6-2.9-4.1-13.6-4.1-13.6s-3.3-10.9-3.7-11.9
		c-0.4-1.1-4-11.9-4-11.9c-0.7-1.6-5.3-13-5.3-13s14-1.9,16.6-6.6l0.3,0.1"/>
	<path style="fill:#CCDFF3;stroke:#22578A;stroke-miterlimit:10;" d="M105.1,320.4c0,0,2-0.3,7.2-5.6l-0.4-5.2
		C111.9,309.7,107,319.7,105.1,320.4z"/>
	<path style="fill:none;stroke:#22578A;stroke-width:2;stroke-miterlimit:10;" d="M105.1,320.4c0,0-12.4,9.3-22.1,12.3
		c0,0-2.1,0.7-2.1,1.1c0,0.3-4.2,0-4.2,0s-2.7-0.1-3.6,0.1c-0.8,0.2-3.6,0.9-4.8,0.3c-1.3-0.6-4-1.7-4.9-4s-3.1-9-1.9-20.6
		c0,0-0.4-7.3,3.2-21.3c3.6-14,6.4-18,7.2-23.3c0,0,1.7-5.8,2.3-13.5c0,0,2.7-7.6,2.5-8.2"/>
	<path style="fill:none;stroke:#22578A;stroke-miterlimit:10;" d="M90.1,213.1c0,0,1.9-0.9,3.6,0.1c1.7,1,6.6,6.8,6.4,7.1
		c-0.2,0.3-0.1,4.6-0.1,4.6c1.2,0.7,2.5-1.9,2.5-1.9s0-1.3,0.3-2c0.3-0.7,0-3.7,0.3-4c0.3-0.3,1.1,0,1.1,0s2.5,2.5,4.5,3.8
		c2.3,1.5-0.5,5.1-0.5,5.1s-0.1,8.7-1.7,8.4c-1.7-0.3-6,8.9-6.7,8.6c-0.7-0.3-4.4,3.6-4.4,3.6c-0.9,4-3.5,8.2-3.5,8.2
		s-0.7,3.1-0.9,3.2c-0.3,0.1-0.8,4.8-0.8,4.8l-0.3,5.3l-0.3,8.1v6.6c-0.1,9.3,0.7,7.3,0.7,7.3s-6.8,4.4-6.9,6.2"/>
	<path style="fill:none;stroke:#22578A;stroke-miterlimit:10;" d="M100,224.4c0,0-0.1,2.9-0.3,3.4c0,0-0.3,2.5-3.2,1.4
		c0,0-1.8-1.9-1.1-5.4l-0.1-2.3c0,0-4-3.4-6.2-4.5c-2.3-1.1-4-1.9-4-1.9s2.5-2.5,3-2.4s-0.3,0-0.3,0s3.4-3.4,4.2-3
		c0,0,1.6-4.3,3.3-4.2c0,0,5.6-0.7,7.5,0c0,0,3,2.1,3.7,4.6c0,0,0,1.5-2.1,2.3c-2.1,0.9-5.4-4.7-5.4-4.7"/>
	<path style="fill:none;stroke:#22578A;stroke-miterlimit:10;" d="M98.5,211.2c0.5-0.3,1.5-1.9,1.5-1.9"/>
	<path style="fill:none;stroke:#22578A;stroke-miterlimit:10;" d="M96.4,209.6c0,0,2.7,2.3,3.4,3c0.7,0.6,2.3,1.8,2.7,2.5
		c0.3,0.7,0.5,1.3,0.5,3.2"/>
	<path style="fill:none;stroke:#000000;stroke-miterlimit:10;" d="M88.4,216.7l-7.6-3.2c-2.7,0.1-3.6,1.1-3.6,1.1s-2.4-0.1-3,3.6
		S68.9,236,68.9,236s-0.1,3,2.9,3.9c0,0,3.6,3.8,7.2,4.1c0,0,3.6,2.1,7.2,1.3c3.7-0.8,3.8-2.7,3.8-2.7l3.3-4.4c0,0,0.1-6,3.5-8"/>
	<path style="fill:none;stroke:#000000;stroke-miterlimit:10;" d="M93.4,238.1c0,0,2.1-6,3-9.7"/>
	<path style="stroke:#000000;stroke-miterlimit:10;" d="M99.7,227.7l0.3-2.7c0,0,0.7,1.1,2.5-1.9l-2.9,5.3"/>
	<path style="fill:none;stroke:#000000;stroke-miterlimit:10;" d="M108,230.5c0,0,6.7-19.9,7.5-20.2c0.8-0.2,0-9.1,0-9.1
		s-8.1,0.7-10.3-3.7c0,0-4.8,6.8-5.4,7v0.8"/>
	<path style="fill:none;stroke:#000000;stroke-miterlimit:10;" d="M102.8,205.6c0,0,1.5-3.6,3-4.1c0,0,2.7,0.7,2.9,1.5v6.6
		c0,0,4,1.9,7.1-1.7"/>
	<path style="fill:none;stroke:#FFFFFF;stroke-miterlimit:10;" d="M107.2,194.8c0,0,2.1,5.6,8.1,2.7"/>
	<path style="fill:none;stroke:#22578A;stroke-miterlimit:10;" d="M102.6,223.1c0,0,0.8,3.8,4.6,2.7"/>
	<path style="fill:none;stroke:#22578A;stroke-miterlimit:10;" d="M167.8,235.3c0,0-1.9-3.7-1.8-4.8c0.1-1.1,0-7,0-7
		s0.7-1.3,1.4-2.1c0.7-0.9,1.6-1.5,2-2.3c0.4-0.9,0.5-7.6-0.5-8.4c-0.9-0.7-1.5-2.5-4.5-0.5c-3,2-0.7,4.9-0.7,4.9"/>
	<path style="fill:none;stroke:#22578A;stroke-miterlimit:10;" d="M164,218c0,0,0-1.1,0.9-1.3c0.9-0.3,0-1.9,0-1.9s0.7-0.3,1,0.8
		C166.2,216.6,165.4,217.4,164,218z"/>
	<path style="fill:none;stroke:#22578A;stroke-miterlimit:10;" d="M167.1,209.1c0,0-3.6-13.7-9.8-17.2c0,0-1.9-5.2-5.4-5.7
		c-3.5-0.5-9-3.3-19,0c0,0-8.1,5.3-9.9,13.2c0,0-1.3,6.7-0.8,7.9c0.5,1.2,1.7,7.9,1.7,10.6l0.5-3.3l-0.9-7.7c0,0,4.1-25.8,26.6-17
		c0,0,6.9,3.3,8.4,8.2l1.1,4.2l2.4,4.4l0.1,5.2l0.8,1.7"/>
	<path style="fill:none;stroke:#22578A;stroke-miterlimit:10;" d="M166.2,228.9c0,0-1.5-3.2-1.2-6.6"/>
	<path style="fill:none;stroke:#22578A;stroke-miterlimit:10;" d="M135.3,248.8c0,0,0-5-2.3-11.4c0,0-1.3,0.1-4.7-5.7
		c0,0-3.8-8.9-4.4-14.3"/>
	<path style="fill:none;stroke:#22578A;stroke-miterlimit:10;" d="M133,237.4c0,0,8.5,1.1,12.4,0.7c0,0,13.5-8,16.6-10.4l1.2-5.5
		v-1.7c0,0,2.5,4.4,5.4-0.3"/>
	<path style="fill:none;stroke:#22578A;stroke-miterlimit:10;" d="M134,223.1c0,0,3.7-4.7,5.2-4.1c0,0,1.5-1.1,2.1-0.8
		c0,0,5.6,0.4,6.4,1.3c0,0-5.6-0.1-5.8,0c-0.3,0.1-1.9,0.3-1.9,0.5s-1.3,0.2-1.5,0.5C138.3,220.9,134.8,222.1,134,223.1z"/>
	<path style="fill:none;stroke:#22578A;stroke-miterlimit:10;" d="M134,223.1c0,0,2.5-5.6,3.4-5.7c0.9-0.1,1.2,0,1.2,0l0.9-0.5
		c0,0,6,0.7,7.4,2.3"/>
	<path style="fill:none;stroke:#22578A;stroke-miterlimit:10;" d="M125.3,207.7c0,0,1.1-2.7,3.3-2.9c2.2-0.1,5.9-1.5,5.9-1.5
		s-0.4-2.1-1.1-2c-0.7,0.1-5.7,1.8-5.7,1.8S125.1,206,125.3,207.7z"/>
	<path style="fill:none;stroke:#22578A;stroke-miterlimit:10;" d="M140.1,201.3c0,0-0.4-2.4-0.8-2.5c-0.4-0.1,6.5-0.5,8.4-1.3
		c1.9-0.7,6.3,3.2,6.3,3.2s-4.3-1.7-4.9-1.3c-0.7,0.4-2.3-0.1-2.9,0.5c-0.5,0.7-5.7,1.3-5.7,1.3"/>
	<path style="fill:none;stroke:#22578A;stroke-miterlimit:10;" d="M132.1,228c0,0,0-4.8,0.5-6.2c0.5-1.4,3.4-5.2,4.2-5
		c0.8,0.2,1.7,0,1.7,0l0.7-0.5l0.7-0.8c0,0,2.7-0.2,4.3,0.8c0,0,5-0.1,6.1,3.1c1.1,3.2,0.8,2.3,0.8,2.3s-0.9-5.4-1.3-5.4
		c-0.4-0.1-2.7-1.6-6-2c-3.3-0.4-3.8-0.5-3.8-0.5s-1.3,0.5-1.3,1.3s-1.9-0.5-1.9-0.5s-3.7,3.8-4.7,4.2c-1,0.4,0,9.6,0,9.6"/>
	<path style="fill:none;stroke:#22578A;stroke-miterlimit:10;" d="M135.9,215.6l-0.6-0.5c0,0-2.7-3.6-0.5-5c2.1-1.4,1.1-6,1.1-6"/>
	<path style="fill:none;stroke:#22578A;stroke-miterlimit:10;" d="M135.3,212.9c0,0,0.3-0.7,0.7-0.6c0.4,0.1,0.3,0.1,0.6,0.3
		s0.2,0.5,0.2,0.5s-0.3,0.6-0.5,0.4C136.1,213.4,135.6,213.7,135.3,212.9z"/>
	<path style="fill:none;stroke:#22578A;stroke-miterlimit:10;" d="M140.6,212.5c-0.1-0.1-0.7,0.3-0.9-0.3c0-0.1,0-0.3,0-0.4
		c0,0,0.3-0.7,0.7-0.6c0,0,0.6-0.3,0.9,0s0.8,0.3,0.6,0.6c-0.2,0.3-0.9,0.7-1.1,0.7"/>
	<path style="fill:none;stroke:#22578A;stroke-miterlimit:10;" d="M141.8,214.1c0,0,2.2-0.7,2.3-1.9c0.2-1.2-1.4-2.5-1.4-2.5
		s-2.5-1.7-2.9-1.5c-0.3,0.3-0.7-4.6,0-4.7"/>
	<path style="fill:none;stroke:#22578A;stroke-miterlimit:10;" d="M135.6,209.2c0,0,2.7-1.7,4.3-1.1"/>
	<path style="fill:none;stroke:#22578A;stroke-miterlimit:10;" d="M128.2,209.7c0,0,2.1-4.3,6.4-2.4
		C134.6,207.2,133.8,210.4,128.2,209.7z"/>
	<path style="fill:none;stroke:#22578A;stroke-miterlimit:10;" d="M143.6,204.6c0,0,2.1-3.9,7.4-0.4
		C151.1,204.2,146.1,206.6,143.6,204.6z"/>
	<path style="fill:none;stroke:#22578A;stroke-miterlimit:10;" d="M145.7,203c0,0-0.9,1.4,0.3,2.1c1.2,0.7,1.9-0.6,1.9-0.6
		s0.1-1.3-0.4-1.7"/>
	<path style="fill:none;stroke:#22578A;stroke-miterlimit:10;" d="M146.7,203.4c0,0-0.9,0.6,0,1.1
		C146.7,204.5,147.7,204.1,146.7,203.4z"/>
	<path style="fill:none;stroke:#22578A;stroke-miterlimit:10;" d="M130.5,207.3c0,0-0.5,1.5,0.6,1.9c1.1,0.4,1.7-0.3,1.7-0.3
		s1-1.7-0.3-2.1"/>
	<path style="fill:none;stroke:#22578A;stroke-miterlimit:10;" d="M131.4,207.7c0,0-0.5,0.3,0,0.7c0.5,0.4,0.7-0.3,0.7-0.3
		S132,207.3,131.4,207.7z"/>
	
		<linearGradient id="SVGID_00000143575130840132745730000000661560083313519775_" gradientUnits="userSpaceOnUse" x1="44.5986" y1="-464.059" x2="182.4708" y2="-464.059" gradientTransform="matrix(1 0 0 1 0 518)">
		<stop  offset="0" style="stop-color:#FFFFFF"/>
		<stop  offset="8.874609e-03" style="stop-color:#EDEEF3"/>
		<stop  offset="4.937839e-02" style="stop-color:#B9BED2"/>
		<stop  offset="9.163110e-02" style="stop-color:#909BBA"/>
		<stop  offset="0.1348" style="stop-color:#7183AA"/>
		<stop  offset="0.1791" style="stop-color:#58719C"/>
		<stop  offset="0.225" style="stop-color:#436695"/>
		<stop  offset="0.273" style="stop-color:#335E8F"/>
		<stop  offset="0.3245" style="stop-color:#275A8C"/>
		<stop  offset="0.386" style="stop-color:#24588B"/>
	</linearGradient>
	
		<path style="fill:url(#SVGID_00000143575130840132745730000000661560083313519775_);stroke:#FFFFFF;stroke-width:2;stroke-miterlimit:10;" d="
		M170.8,32.7l-15,15.2c0,0-2.6,4.8-4.5,5.8c0,0-17.7,17.7-17.7,20c0,0-3.9,5.4-7.1,6.1L112,95.9c0,0-23.7,20.8-43.1,6
		c0,0-23.3-15.2-24.2-41.5c0,0-1.9-13.2,10.6-27.7c0,0,21.3-29.2,20.9-32H108c0,0,40.1,40.2,74.5,20.1L170.8,32.7z"/>
	<path style="fill:none;stroke:#FFFFFF;stroke-width:3;stroke-miterlimit:10;" d="M44.6,162c0,0,18.2-22,20.5-63"/>
	<path style="fill:none;stroke:#FFFFFF;stroke-width:3;stroke-miterlimit:10;" d="M82.9,171.2c0,0,25.5-19.6,23.6-71.2"/>
	<path style="fill:none;stroke:#FFFFFF;stroke-width:3;stroke-miterlimit:10;" d="M76.2,0.7c0,0-1.1,76.1,76.7,51.5"/>
	<path style="fill:none;stroke:#24588B;stroke-miterlimit:10;" d="M111.9,309.7c0,0,2.1-34.7,13.3-30.1"/>
	<path style="fill:#24588B;" d="M113.5,177.9c0,0,16.2,9.7,30.1-42.3c0,0,12-57.3-3.8-70l1.5-1.9l10,3.4c3.2-2.7,9.3,3,9.3,3
		c-1.1-1.3-3.3,1.3-3.3,1.3c0.1,0.5,0.9,1.1,0.9,1.1c-6.8,0.3-3.9-0.9-6.8,0.3c-2.9,1.3,0.7,4.3,2.1,4.1c0,0-3.9-0.2-3.9,0.7
		c0,0.9-0.1,3.2,1.6,3.8c1.7,0.5,5.4,2.1,7.9,1.3c0,0,3.9,3.6,6.6,3.4c0,0-0.5,2.2-0.3,2.5c0.3,0.3,1.6,1,1.6,1l-2.4,0.5
		c0,0-4.4-1.2-5.7-0.7s-5.4,0.9-6.1,1c-0.7,0.1-1.7,1.7-1.7,1.7v1.5l1.7,0.8l4.8,0.5h3.3l3,1.1l2.4,1.8L168,99l0.7,0.7v4.1"/>
	<path style="fill:#24588B;stroke:#FFFFFF;stroke-miterlimit:10;" d="M151.3,73.4"/>
	<g>
		<g>
			<path style="fill:#24588B;" d="M122.6,329l-4.8-21.2l2.3-0.3l2.3,10.5c0.6,2.9,1.1,5.4,1.5,8h0.1c0.5-2.6,1.3-5.5,2.1-8.5
				l3.2-11.3l2.3-0.3l-6.6,22.9L122.6,329z"/>
			<path style="fill:#24588B;" d="M133.8,320.1c-0.1,3.9,1.7,5.2,3.8,4.9c1.5-0.2,2.5-0.7,3.3-1.3l0.3,2c-0.7,0.5-2.1,1.3-4,1.5
				c-3.6,0.5-5.6-2.4-5.4-7.2c0.2-4.8,2.4-8.9,5.9-9.3c3.9-0.5,4.7,3.8,4.6,6.8c0,0.6-0.1,1.1-0.1,1.3L133.8,320.1z M140.2,317.1
				c0.1-1.8-0.3-4.6-2.7-4.2c-2.2,0.3-3.2,3.2-3.5,5.2L140.2,317.1z"/>
			<path style="fill:#24588B;" d="M145.1,314.4c0.1-1.6,0.1-3,0.1-4.3l1.9-0.3v2.6h0.1c0.7-1.6,2.1-3.3,4.1-3.6
				c1.7-0.3,4.2,0.7,3.8,6.2l-0.6,9.5l-2.1,0.3l0.5-9.2c0.1-2.5-0.4-4.6-2.5-4.3c-1.4,0.2-2.6,1.7-3.1,3.4c-0.1,0.4-0.2,0.9-0.2,1.3
				l-0.5,9.5l-2.1,0.3L145.1,314.4z"/>
			<path style="fill:#24588B;" d="M161.9,303.1l-0.3,4.6l3.1-0.5l-0.1,2.2l-3.1,0.5l-0.6,8.6c-0.1,1.9,0.2,3,1.4,2.9
				c0.5-0.1,1-0.3,1.3-0.4l-0.1,2.1c-0.4,0.3-1.1,0.5-1.9,0.7c-1,0.1-1.7-0.2-2.2-0.9c-0.5-0.7-0.7-2.1-0.5-4l0.6-8.7l-1.9,0.3
				l0.1-2.2l1.9-0.3l0.3-3.8L161.9,303.1z"/>
			<path style="fill:#24588B;" d="M169.9,302.1c-0.1,1-0.7,1.9-1.5,2c-0.7,0.1-1.3-0.6-1.2-1.6c0.1-1,0.7-1.9,1.5-2
				C169.5,300.3,170,301,169.9,302.1z M165.9,322.9l1.2-16l2.1-0.3l-1.3,16L165.9,322.9z"/>
			<path style="fill:#24588B;" d="M171.5,319.1c0.6,0.5,1.7,0.9,2.7,0.7c1.5-0.2,2.4-1.4,2.5-2.7c0.1-1.4-0.4-2.1-1.9-2.6
				c-2-0.7-2.9-2.1-2.7-4.1c0.2-2.5,1.9-4.9,4.5-5.3c1.2-0.2,2.2,0.1,2.9,0.5l-0.7,2.2c-0.4-0.3-1.3-0.7-2.3-0.6
				c-1.3,0.2-2.1,1.3-2.2,2.5c-0.1,1.3,0.5,1.8,2,2.4c1.9,0.7,2.9,2,2.7,4.4c-0.3,2.8-2,5-4.8,5.4c-1.3,0.2-2.4-0.1-3.2-0.6
				L171.5,319.1z"/>
			<path style="fill:#24588B;" d="M192.7,311c-0.6,6-4,9-6.8,9.4c-3.2,0.5-5.4-2.3-4.9-7.4c0.5-5.4,3.4-8.9,6.8-9.4
				C191.3,303,193.3,306,192.7,311z M183.3,312.5c-0.3,3.5,0.9,6,3,5.6c2.1-0.3,3.9-3.2,4.2-6.8c0.3-2.7-0.4-6-3-5.6
				C185,306.1,183.6,309.5,183.3,312.5z"/>
			<path style="fill:#24588B;" d="M197.2,295.2l2.2-0.3l-2.6,23.6l-2.1,0.3L197.2,295.2z"/>
		</g>
	</g>
	<path style="fill:none;stroke:#FFFFFF;stroke-width:3;stroke-miterlimit:10;" d="M55.3,32.7c0,0,7.1,71.2,71.2,47"/>
	<path style="fill:#FFFFFF;stroke:#000000;stroke-miterlimit:10;" d="M105.1,197.5l2.1-2.7c0,0,0.9-0.3,1.7-0.3
		c0.7,0,1.1-1.5,1.1-1.5l1.3-0.3l4.5-13.1c0,0,1.3-1.7,1.5-1.6c0.3,0.1,0.3,0.7,0,2.7c-0.3,2-4.2,11.1-4,12.7c0,0,0.9,0.4,1.1,1.1
		c0.1,0.7-0.1,2.1-0.1,2.1s1.1,0.3,1.1,1.1c0.1,0.7,0.1,3.7,0.1,3.7"/>
</g>
</svg>
