<svg version="1.1" id="Layer_1" xmlns="http://www.w3.org/2000/svg" xmlns:xlink="http://www.w3.org/1999/xlink" x="0px" y="0px" viewBox="0 0 606.7 451.9" style="enable-background:new 0 0 606.7 451.9;" xml:space="preserve">
    <g>
        <g>
            <g>
                <path style="fill:#FFFFFF;" d="M529.3,186.3V17.2c0-9.5-7.7-17.2-17.2-17.2H94.6c-9.5,0-17.2,7.7-17.2,17.2v169.1
				c0,5.1-4.2,9.3-9.3,9.3H9.3c-5.1,0-9.3,4.2-9.3,9.3v37.1c0,5.1,4.2,9.3,9.3,9.3h58.8c5.1,0,9.3,4.2,9.3,9.3v174.1
				c0,9.5,7.7,17.2,17.2,17.2h417.5c9.5,0,17.2-7.7,17.2-17.2V260.6c0-5.1,4.2-9.3,9.3-9.3h58.8c5.1,0,9.3-4.2,9.3-9.3v-37.1
				c0-5.1-4.2-9.3-9.3-9.3h-58.8C533.5,195.6,529.3,191.5,529.3,186.3z M68.1,232.8H27.9c-5.1,0-9.3-4.2-9.3-9.3v0
				c0-5.1,4.2-9.3,9.3-9.3h40.2c5.1,0,9.3,4.2,9.3,9.3v0C77.4,228.6,73.2,232.8,68.1,232.8z M510.7,424.1c0,5.1-4.2,9.3-9.3,9.3
				H105.2c-5.1,0-9.3-4.2-9.3-9.3V27.9c0-5.1,4.2-9.3,9.3-9.3h396.2c5.1,0,9.3,4.2,9.3,9.3V424.1z M578.8,232.8h-40.2
				c-5.1,0-9.3-4.2-9.3-9.3v0c0-5.1,4.2-9.3,9.3-9.3h40.2c5.1,0,9.3,4.2,9.3,9.3v0C588.1,228.6,584,232.8,578.8,232.8z" />
            </g>
        </g>
        <g>
            <g>
                <path style="fill:none;stroke:#FFFFFF;stroke-width:2;stroke-miterlimit:10;" d="M489.4,372.6c-5.3-5.3-12.3-8.2-19.7-8.2
				c-7.4,0-14.4,2.9-19.7,8.2c-5.3,5.3-8.2,12.3-8.2,19.7c0,7.4,2.9,14.4,8.2,19.7c5.4,5.4,12.6,8.1,19.7,8.1
				c7.1,0,14.3-2.7,19.7-8.1C500.2,401.1,500.2,383.5,489.4,372.6z M476.3,398.9c-3.6,3.6-9.5,3.6-13.1,0c-1.8-1.8-2.7-4.1-2.7-6.6
				c0-2.5,1-4.8,2.7-6.6c1.8-1.8,4.1-2.7,6.6-2.7c2.5,0,4.8,1,6.6,2.7C479.9,389.4,479.9,395.3,476.3,398.9z" />
            </g>
        </g>
        <g>
            <g>
                <path style="fill:none;stroke:#FFFFFF;stroke-width:2;stroke-miterlimit:10;" d="M156.7,39.9c-10.9-10.9-28.5-10.9-39.4,0
				c-10.9,10.9-10.9,28.5,0,39.4c5.3,5.3,12.3,8.2,19.7,8.2c7.4,0,14.4-2.9,19.7-8.2c5.3-5.3,8.2-12.3,8.2-19.7
				C164.9,52.2,162,45.2,156.7,39.9z M143.6,66.2c-1.8,1.8-4.1,2.7-6.6,2.7c-2.5,0-4.8-1-6.6-2.7c-3.6-3.6-3.6-9.5,0-13.1
				c1.8-1.8,4.2-2.7,6.6-2.7c2.4,0,4.8,0.9,6.6,2.7c1.8,1.8,2.7,4.1,2.7,6.6C146.3,62.1,145.3,64.4,143.6,66.2z" />
            </g>
        </g>
        <g>
            <g>
                <path style="fill:none;stroke:#FFFFFF;stroke-width:2;stroke-miterlimit:10;" d="M489.4,39.9c-10.9-10.9-28.5-10.9-39.4,0
				c-5.3,5.3-8.2,12.3-8.2,19.7c0,7.4,2.9,14.4,8.2,19.7c5.3,5.3,12.3,8.2,19.7,8.2c7.4,0,14.4-2.9,19.7-8.2
				C500.2,68.5,500.2,50.8,489.4,39.9z M476.3,66.2c-1.8,1.8-4.1,2.7-6.6,2.7c-2.5,0-4.8-1-6.6-2.7c-1.8-1.8-2.7-4.1-2.7-6.6
				s1-4.8,2.7-6.6c1.8-1.8,4.2-2.7,6.6-2.7c2.4,0,4.8,0.9,6.6,2.7C479.9,56.7,479.9,62.6,476.3,66.2z" />
            </g>
        </g>
        <g>
            <g>
                <path style="fill:none;stroke:#FFFFFF;stroke-width:2;stroke-miterlimit:10;" d="M156.7,372.6c-5.3-5.3-12.3-8.2-19.7-8.2
				c-7.4,0-14.4,2.9-19.7,8.2c-10.9,10.9-10.9,28.5,0,39.4c5.4,5.4,12.6,8.1,19.7,8.1c7.1,0,14.3-2.7,19.7-8.1
				c5.3-5.3,8.2-12.3,8.2-19.7C164.9,384.9,162,377.9,156.7,372.6z M143.6,398.9c-3.6,3.6-9.5,3.6-13.1,0c-3.6-3.6-3.6-9.5,0-13.1
				c1.8-1.8,4.1-2.7,6.6-2.7c2.5,0,4.8,1,6.6,2.7c1.8,1.8,2.7,4.1,2.7,6.6C146.3,394.8,145.3,397.1,143.6,398.9z" />
            </g>
        </g>
        <path style="fill:#FFFFFF;" d="M453.3,226c0,82.8-67.2,150-150,150h0c-82.8,0-150-67.2-150-150v0c0-82.8,67.2-150,150-150h0
		C386.2,76,453.3,143.1,453.3,226L453.3,226z" />
        <path style="fill:#22578A;" d="M387.9,144.8c-8.7-5.6-20.3-3.2-25.9,5.5l-81.6,125.8l-37.7-34.9c-7.5-7.1-19.4-6.8-26.5,0.7
		c-7.1,7.5-6.8,19.4,0.7,26.5c0.1,0.1,0.2,0.2,0.4,0.3l54.1,50c3.6,3.3,8.2,5,12.7,5c5,0,11.5-2.1,15.7-8.5
		c2.5-3.8,93.8-144.5,93.8-144.5C399.1,162,396.6,150.4,387.9,144.8C387.9,144.8,387.9,144.8,387.9,144.8L387.9,144.8z" />
        <path style="fill:#22578A;" d="M387.9,153.4c-8.7-5.6-20.3-3.2-25.9,5.5l-81.6,125.8l-37.7-34.9c-7.5-7.1-19.4-6.8-26.5,0.7
		c-7.1,7.5-6.8,19.4,0.7,26.5c0.1,0.1,0.2,0.2,0.4,0.3l54.1,50c3.6,3.3,8.2,5,12.7,5c5,0,11.5-2.1,15.7-8.5
		c2.5-3.8,93.8-144.5,93.8-144.5C399.1,170.6,396.6,159,387.9,153.4C387.9,153.4,387.9,153.4,387.9,153.4L387.9,153.4z" />
    </g>
</svg>